{
	"name": "Dog #2",
	"symbol": "DOG",
	"image": "1.png",
	"properties": {
		"files": [{ "url": "1.png", "type": "image/png" }],
		"creators": [
			{
				"address": "EXcGTCnCWNfog7sYrwdTHVih6exHUpxiK2BFzRbbunPr",
				"share": 100
			}
		]
	}
}
